<?xml version="1.0" encoding="utf-8"?>
<!-- Generator: Adobe Illustrator 23.0.1, SVG Export Plug-In . SVG Version: 6.00 Build 0)  -->
<svg version="1.1" id="Layer_1" xmlns="http://www.w3.org/2000/svg" xmlns:xlink="http://www.w3.org/1999/xlink" x="0px" y="0px"
	 viewBox="0 0 900 263.5" style="enable-background:new 0 0 900 263.5;" xml:space="preserve">
<style type="text/css">
	.st0{fill:none;stroke:#FFFFFF;stroke-miterlimit:10;}
	.st1{fill:#9D9D9C;stroke:#FFFFFF;stroke-miterlimit:10;}
	.st2{fill:#FFFFFF;}
	.st3{fill:none;stroke:#FFFFFF;stroke-miterlimit:10;stroke-dasharray:11.9889,11.9889;}
</style>
<line class="st0" x1="182" y1="214.6" x2="722" y2="212.6"/>
<line class="st0" x1="200" y1="213.9" x2="190.9" y2="229.8"/>
<line class="st0" x1="220.4" y1="213.9" x2="211.3" y2="229.8"/>
<line class="st0" x1="240.7" y1="213.9" x2="231.7" y2="229.8"/>
<line class="st0" x1="261.1" y1="213.9" x2="252" y2="229.8"/>
<line class="st0" x1="281.5" y1="213.9" x2="272.4" y2="229.8"/>
<line class="st0" x1="301.8" y1="213.9" x2="292.7" y2="229.8"/>
<line class="st0" x1="322.2" y1="213.9" x2="313.1" y2="229.8"/>
<line class="st0" x1="342.6" y1="213.9" x2="333.5" y2="229.8"/>
<line class="st0" x1="362.9" y1="213.9" x2="353.8" y2="229.8"/>
<line class="st0" x1="383.3" y1="213.9" x2="374.2" y2="229.8"/>
<line class="st0" x1="403.6" y1="213.9" x2="394.5" y2="229.8"/>
<line class="st0" x1="424" y1="213.9" x2="414.9" y2="229.8"/>
<line class="st0" x1="444.4" y1="213.9" x2="435.3" y2="229.8"/>
<line class="st0" x1="464.7" y1="213.9" x2="455.6" y2="229.8"/>
<line class="st0" x1="485.1" y1="213.9" x2="476" y2="229.8"/>
<line class="st0" x1="505.5" y1="213.9" x2="496.4" y2="229.8"/>
<line class="st0" x1="525.8" y1="213.9" x2="516.7" y2="229.8"/>
<line class="st0" x1="546.2" y1="213.9" x2="537.1" y2="229.8"/>
<line class="st0" x1="566.5" y1="213.9" x2="557.4" y2="229.8"/>
<line class="st0" x1="586.9" y1="213.9" x2="577.8" y2="229.8"/>
<line class="st0" x1="607.3" y1="213.9" x2="598.2" y2="229.8"/>
<line class="st0" x1="627.6" y1="213.9" x2="618.5" y2="229.8"/>
<line class="st0" x1="648" y1="213.9" x2="638.9" y2="229.8"/>
<line class="st0" x1="668.3" y1="213.9" x2="659.3" y2="229.8"/>
<line class="st0" x1="688.7" y1="213.9" x2="679.6" y2="229.8"/>
<line class="st0" x1="709.1" y1="213.9" x2="700" y2="229.8"/>
<rect x="378.7" y="135.1" class="st1" width="167.4" height="78.8"/>
<g>
	<g>
		<line class="st0" x1="462.5" y1="170.3" x2="586.1" y2="34.6"/>
		<g>
			<polygon class="st2" points="586.9,39.8 585.9,39.8 585.8,34.9 580.9,35.3 580.8,34.3 586.8,33.8 			"/>
		</g>
	</g>
</g>
<g>
	<g>
		<path class="st0" d="M462.5,170.3c1.9,0,3.9,0,6,0"/>
		<path class="st3" d="M480.4,170.2c28.8-0.2,69.6-0.4,89.9-0.6"/>
		<path class="st0" d="M576.4,169.6c3,0,5.1,0,6,0"/>
	</g>
</g>
<path class="st0" d="M492.6,137.2c0,0,19.4,3.5,15.8,33.1"/>
<g>
	<g id="page1" transform="matrix(1.13 0 0 1.13 -63.986 -65.1985)">
		<g>
			<path id="g0-32" class="st2" d="M455.9,199.9c0,0,0.1-0.4,0.1-0.4c0-0.3-0.2-0.3-0.3-0.3c-0.3,0-0.3,0.1-0.4,0.6l-4.7,19
				c-2.4-0.3-3.3-1.5-3.3-3.2c0-0.6,0-1.3,1.3-4.8c0.4-1,0.5-1.4,0.5-1.9c0-1.3-0.9-2.3-2.3-2.3c-2.6,0-3.7,4.2-3.7,4.4
				c0,0.1,0.1,0.3,0.3,0.3c0.3,0,0.3-0.1,0.4-0.5c0.7-2.5,1.8-3.6,2.9-3.6c0.3,0,0.7,0,0.7,0.9c0,0.1,0,0.7-0.5,2
				c-1.5,4.1-1.5,4.7-1.5,5.4c0,2.8,2.3,3.8,4.9,4c-0.2,0.9-0.4,1.8-0.7,2.7c-0.5,1.7-0.7,2.5-0.7,2.6c0,0.3,0.2,0.3,0.3,0.3
				c0.1,0,0.2,0,0.2-0.1c0.1-0.1,1.3-4.9,1.4-5.5c1.1,0,3.3,0,5.9-2.7c0.9-1,1.8-2.4,2.3-3.6c0.3-0.7,1-3.3,1-4.8
				c0-1.7-0.9-1.9-1.1-1.9c-0.7,0-1.3,0.7-1.3,1.3c0,0.3,0.2,0.5,0.3,0.7c0.3,0.3,1,1,1,2.5c0,1-0.6,3.2-2.4,5.2
				c-2.4,2.7-4.6,2.7-5.5,2.7L455.9,199.9z"/>
		</g>
	</g>
</g>
</svg>
