<?xml version="1.0" encoding="utf-8"?>
<!-- Generator: Adobe Illustrator 23.0.1, SVG Export Plug-In . SVG Version: 6.00 Build 0)  -->
<svg version="1.1" id="Layer_2" xmlns="http://www.w3.org/2000/svg" xmlns:xlink="http://www.w3.org/1999/xlink" x="0px" y="0px"
	 viewBox="0 0 900 417.7" style="enable-background:new 0 0 900 417.7;" xml:space="preserve">
<style type="text/css">
	.st0{fill:none;}
	.st1{clip-path:url(#SVGID_2_);fill:none;stroke:#FFFFFF;stroke-miterlimit:10;}
	.st2{clip-path:url(#SVGID_4_);fill:none;stroke:#FFFFFF;stroke-miterlimit:10;}
	.st3{fill:url(#New_Pattern_Swatch_6);stroke:url(#New_Pattern_Swatch_3);stroke-miterlimit:10;}
	.st4{filter:url(#Adobe_OpacityMaskFilter);}
	.st5{fill:#FFFFFF;}
	.st6{mask:url(#SVGID_5_);}
	.st7{clip-path:url(#SVGID_7_);}
	.st8{fill:none;stroke:#FFFFFF;stroke-miterlimit:10;}
	.st9{filter:url(#Adobe_OpacityMaskFilter_1_);}
	.st10{mask:url(#SVGID_8_);}
	.st11{clip-path:url(#SVGID_10_);}
</style>
<pattern  y="596" width="485.9" height="1493" patternUnits="userSpaceOnUse" id="New_Pattern_Swatch_3" viewBox="0 -1493 485.9 1493" style="overflow:visible;">
	<g>
		<rect x="0" y="-1493" class="st0" width="485.9" height="1493"/>
		<g>
			<defs>
				<rect id="SVGID_1_" x="20.8" y="-876" width="432.9" height="432.9"/>
			</defs>
			<clipPath id="SVGID_2_">
				<use xlink:href="#SVGID_1_"  style="overflow:visible;"/>
			</clipPath>
			<line class="st1" x1="0.4" y1="-1007.4" x2="485.5" y2="-1492.6"/>
			<line class="st1" x1="0.4" y1="-978.6" x2="485.5" y2="-1463.8"/>
			<line class="st1" x1="0.4" y1="-949.9" x2="485.5" y2="-1435.1"/>
			<line class="st1" x1="0.4" y1="-921.1" x2="485.5" y2="-1406.3"/>
			<line class="st1" x1="0.4" y1="-892.3" x2="485.5" y2="-1377.5"/>
			<line class="st1" x1="0.4" y1="-863.6" x2="485.5" y2="-1348.7"/>
			<line class="st1" x1="0.4" y1="-834.8" x2="485.5" y2="-1320"/>
			<line class="st1" x1="0.4" y1="-806" x2="485.5" y2="-1291.2"/>
			<line class="st1" x1="0.4" y1="-777.2" x2="485.5" y2="-1262.4"/>
			<line class="st1" x1="0.4" y1="-748.5" x2="485.5" y2="-1233.6"/>
			<line class="st1" x1="0.4" y1="-719.7" x2="485.5" y2="-1204.9"/>
			<line class="st1" x1="0.4" y1="-690.9" x2="485.5" y2="-1176.1"/>
			<line class="st1" x1="0.4" y1="-662.1" x2="485.5" y2="-1147.3"/>
			<line class="st1" x1="0.4" y1="-633.4" x2="485.5" y2="-1118.6"/>
			<line class="st1" x1="0.4" y1="-604.6" x2="485.5" y2="-1089.8"/>
			<line class="st1" x1="0.4" y1="-575.8" x2="485.5" y2="-1061"/>
			<line class="st1" x1="0.4" y1="-547" x2="485.5" y2="-1032.2"/>
			<line class="st1" x1="0.4" y1="-518.3" x2="485.5" y2="-1003.5"/>
			<line class="st1" x1="0.4" y1="-489.5" x2="485.5" y2="-974.7"/>
			<line class="st1" x1="0.4" y1="-460.7" x2="485.5" y2="-945.9"/>
			<line class="st1" x1="0.4" y1="-432" x2="485.5" y2="-917.1"/>
			<line class="st1" x1="0.4" y1="-403.2" x2="485.5" y2="-888.4"/>
			<line class="st1" x1="0.4" y1="-374.4" x2="485.5" y2="-859.6"/>
			<line class="st1" x1="0.4" y1="-345.6" x2="485.5" y2="-830.8"/>
			<line class="st1" x1="0.4" y1="-316.9" x2="485.5" y2="-802"/>
			<line class="st1" x1="0.4" y1="-288.1" x2="485.5" y2="-773.3"/>
			<line class="st1" x1="0.4" y1="-259.3" x2="485.5" y2="-744.5"/>
			<line class="st1" x1="0.4" y1="-230.5" x2="485.5" y2="-715.7"/>
			<line class="st1" x1="0.4" y1="-201.8" x2="485.5" y2="-687"/>
			<line class="st1" x1="0.4" y1="-173" x2="485.5" y2="-658.2"/>
			<line class="st1" x1="0.4" y1="-144.2" x2="485.5" y2="-629.4"/>
			<line class="st1" x1="0.4" y1="-115.4" x2="485.5" y2="-600.6"/>
			<line class="st1" x1="0.4" y1="-86.7" x2="485.5" y2="-571.9"/>
			<line class="st1" x1="0.4" y1="-57.9" x2="485.5" y2="-543.1"/>
			<line class="st1" x1="0.4" y1="-29.1" x2="485.5" y2="-514.3"/>
			<line class="st1" x1="0.4" y1="-0.4" x2="485.5" y2="-485.5"/>
		</g>
	</g>
</pattern>
<pattern  y="596" width="432.9" height="432.9" patternUnits="userSpaceOnUse" id="New_Pattern_Swatch_6" viewBox="20.8 -876 432.9 432.9" style="overflow:visible;">
	<g>
		<rect x="20.8" y="-876" class="st0" width="432.9" height="432.9"/>
		<g>
			<defs>
				<rect id="SVGID_3_" x="20.8" y="-876" width="432.9" height="432.9"/>
			</defs>
			<clipPath id="SVGID_4_">
				<use xlink:href="#SVGID_3_"  style="overflow:visible;"/>
			</clipPath>
			<line class="st2" x1="0.4" y1="-1007.4" x2="485.5" y2="-1492.6"/>
			<line class="st2" x1="0.4" y1="-978.6" x2="485.5" y2="-1463.8"/>
			<line class="st2" x1="0.4" y1="-949.9" x2="485.5" y2="-1435.1"/>
			<line class="st2" x1="0.4" y1="-921.1" x2="485.5" y2="-1406.3"/>
			<line class="st2" x1="0.4" y1="-892.3" x2="485.5" y2="-1377.5"/>
			<line class="st2" x1="0.4" y1="-863.6" x2="485.5" y2="-1348.7"/>
			<line class="st2" x1="0.4" y1="-834.8" x2="485.5" y2="-1320"/>
			<line class="st2" x1="0.4" y1="-806" x2="485.5" y2="-1291.2"/>
			<line class="st2" x1="0.4" y1="-777.2" x2="485.5" y2="-1262.4"/>
			<line class="st2" x1="0.4" y1="-748.5" x2="485.5" y2="-1233.6"/>
			<line class="st2" x1="0.4" y1="-719.7" x2="485.5" y2="-1204.9"/>
			<line class="st2" x1="0.4" y1="-690.9" x2="485.5" y2="-1176.1"/>
			<line class="st2" x1="0.4" y1="-662.1" x2="485.5" y2="-1147.3"/>
			<line class="st2" x1="0.4" y1="-633.4" x2="485.5" y2="-1118.6"/>
			<line class="st2" x1="0.4" y1="-604.6" x2="485.5" y2="-1089.8"/>
			<line class="st2" x1="0.4" y1="-575.8" x2="485.5" y2="-1061"/>
			<line class="st2" x1="0.4" y1="-547" x2="485.5" y2="-1032.2"/>
			<line class="st2" x1="0.4" y1="-518.3" x2="485.5" y2="-1003.5"/>
			<line class="st2" x1="0.4" y1="-489.5" x2="485.5" y2="-974.7"/>
			<line class="st2" x1="0.4" y1="-460.7" x2="485.5" y2="-945.9"/>
			<line class="st2" x1="0.4" y1="-432" x2="485.5" y2="-917.1"/>
			<line class="st2" x1="0.4" y1="-403.2" x2="485.5" y2="-888.4"/>
			<line class="st2" x1="0.4" y1="-374.4" x2="485.5" y2="-859.6"/>
			<line class="st2" x1="0.4" y1="-345.6" x2="485.5" y2="-830.8"/>
			<line class="st2" x1="0.4" y1="-316.9" x2="485.5" y2="-802"/>
			<line class="st2" x1="0.4" y1="-288.1" x2="485.5" y2="-773.3"/>
			<line class="st2" x1="0.4" y1="-259.3" x2="485.5" y2="-744.5"/>
			<line class="st2" x1="0.4" y1="-230.5" x2="485.5" y2="-715.7"/>
			<line class="st2" x1="0.4" y1="-201.8" x2="485.5" y2="-687"/>
			<line class="st2" x1="0.4" y1="-173" x2="485.5" y2="-658.2"/>
			<line class="st2" x1="0.4" y1="-144.2" x2="485.5" y2="-629.4"/>
			<line class="st2" x1="0.4" y1="-115.4" x2="485.5" y2="-600.6"/>
			<line class="st2" x1="0.4" y1="-86.7" x2="485.5" y2="-571.9"/>
			<line class="st2" x1="0.4" y1="-57.9" x2="485.5" y2="-543.1"/>
			<line class="st2" x1="0.4" y1="-29.1" x2="485.5" y2="-514.3"/>
			<line class="st2" x1="0.4" y1="-0.4" x2="485.5" y2="-485.5"/>
		</g>
	</g>
</pattern>
<rect x="724" y="337.4" class="st3" width="132" height="39"/>
<defs>
	<filter id="Adobe_OpacityMaskFilter" filterUnits="userSpaceOnUse" x="82" y="-66.6" width="823.8" height="495.1">
		
			<feColorMatrix  type="matrix" values="-1 0 0 0 1  0 -1 0 0 1  0 0 -1 0 1  0 0 0 1 0" color-interpolation-filters="sRGB" result="source"/>
		<feFlood  style="flood-color:white;flood-opacity:1" result="back"/>
		<feBlend  in="source" in2="back" mode="normal"/>
	</filter>
</defs>
<mask maskUnits="userSpaceOnUse" x="82" y="-66.6" width="823.8" height="495.1" id="SVGID_5_">
	<g class="st4">
		<ellipse class="st5" cx="790.2" cy="278.9" rx="15.9" ry="16.4"/>
	</g>
</mask>
<g class="st6">
	<defs>
		<rect id="SVGID_6_" x="667.5" y="137.7" width="238.4" height="290.8"/>
	</defs>
	<clipPath id="SVGID_7_">
		<use xlink:href="#SVGID_6_"  style="overflow:visible;"/>
	</clipPath>
	<g class="st7">
		<path class="st0" d="M801.3,326.4c0-5,3.1-9.2,7.5-10.9h-37.6c4.4,1.7,7.5,6,7.5,10.9c0,5-3.1,9.2-7.5,10.9h37.6
			C804.4,335.7,801.3,331.4,801.3,326.4z"/>
		<path class="st8" d="M417.4,205.6c1.4,0,2.8,0.2,4.1,0.5l60.2-239.5c-2.9-0.7-5.6-2.2-7.7-4.3L117.7,322.4c1.7,1.7,3,3.8,3.9,6.1
			L401,224.9c-0.1-0.9-0.2-1.7-0.2-2.6C400.7,213.1,408.2,205.6,417.4,205.6z"/>
		<path class="st8" d="M778.6,266.7L497-37.3c-3,2.8-6.9,4.5-11.3,4.5c-1.4,0-2.8-0.2-4.1-0.5l-60.2,239.5c6.8,1.7,12,7.7,12.5,14.9
			l339.5,55.4C774.1,272.6,775.9,269.2,778.6,266.7z"/>
		<path class="st8" d="M117.7,322.4c-3-3-7.1-4.8-11.7-4.8c-9.2,0-16.7,7.5-16.7,16.7c0,6.2,3.4,11.7,8.5,14.5l8.2-14.1l8.2,14.1
			c5.1-2.9,8.5-8.3,8.5-14.5c0-2-0.4-4-1.1-5.8l-15.6,5.8L117.7,322.4z"/>
		<path class="st8" d="M117.7,322.4L106,334.3l15.6-5.8C120.7,326.2,119.4,324.1,117.7,322.4z"/>
		<path class="st8" d="M497-37.3c3.3-3,5.4-7.4,5.4-12.2c0-9.2-7.5-16.7-16.7-16.7S469-58.7,469-49.5c0,4.6,1.9,8.8,4.9,11.8
			l11.7-11.8L497-37.3z"/>
		<path class="st8" d="M481.6-33.3c1.3,0.3,2.7,0.5,4.1,0.5c4.4,0,8.3-1.7,11.3-4.5l-11.3-12.2L481.6-33.3z"/>
		<path class="st8" d="M485.7-49.5L474-37.6c2.1,2.1,4.7,3.6,7.7,4.3L485.7-49.5z"/>
		<path class="st8" d="M401,224.9c1.3,7.9,8.1,14,16.4,14c9.2,0,16.7-7.5,16.7-16.7c0-0.4,0-0.8-0.1-1.2l-15.6-2.6L401,224.9z"/>
		<path class="st8" d="M421.5,206.1c-1.3-0.3-2.7-0.5-4.1-0.5c-9.2,0-16.7,7.5-16.7,16.7c0,0.9,0.1,1.8,0.2,2.6l17.4-6.4
			L421.5,206.1z"/>
		<path class="st8" d="M421.5,206.1l-3.1,12.3L434,221C433.5,213.8,428.3,207.9,421.5,206.1z"/>
		<path class="st8" d="M790,275.5l9.7,16.9c4.2-3,6.9-7.9,6.9-13.5c0-9.2-7.5-16.7-16.7-16.7c-4.4,0-8.4,1.7-11.4,4.6l10.2,11
			L790,275.5z"/>
		<path class="st8" d="M773.5,276.4c-0.1,0.8-0.2,1.6-0.2,2.4c0,5.6,2.7,10.5,6.9,13.5l7.8-13.6L773.5,276.4z"/>
		<path class="st8" d="M788.7,277.7l-10.2-11c-2.7,2.5-4.5,5.9-5,9.7l14.6,2.4L788.7,277.7z"/>
		<path class="st8" d="M97.8,348.8l-14.9,25.9h46.2l-14.9-25.9c-2.4,1.4-5.2,2.1-8.2,2.1C103,351,100.2,350.2,97.8,348.8z"/>
		<path class="st8" d="M97.8,348.8c2.4,1.4,5.2,2.1,8.2,2.1c3,0,5.8-0.8,8.2-2.1l-8.2-14.1L97.8,348.8z"/>
		<path class="st8" d="M808.8,315.5c1.2-0.5,2.5-0.7,3.8-0.8l-12.9-22.4c-2.7,2-6.1,3.2-9.7,3.2s-7-1.2-9.7-3.2l-12.9,22.4
			c1.4,0.1,2.6,0.3,3.8,0.8H808.8z"/>
		<path class="st8" d="M799.7,292.3l-9.7-16.9l-1.3,2.2l1.3,1.4l-1.9-0.3l-7.8,13.6c2.7,2,6.1,3.2,9.7,3.2S797,294.3,799.7,292.3z"
			/>
		<polygon class="st8" points="790,279.1 788.7,277.7 788.1,278.8 		"/>
		<path class="st8" d="M766.9,338.2c1.5,0,3-0.3,4.3-0.8h-8.6C763.9,337.9,765.4,338.2,766.9,338.2z"/>
		<path class="st8" d="M778.6,326.4c0-5-3.1-9.2-7.5-10.9h-4.3l0.5-0.8c-0.2,0-0.3,0-0.5,0c-6.5,0-11.8,5.3-11.8,11.8
			c0,5,3.1,9.2,7.5,10.9h8.6C775.5,335.7,778.6,331.4,778.6,326.4z"/>
		<path class="st8" d="M771.2,315.5c-1.2-0.5-2.5-0.7-3.8-0.8l-0.5,0.8H771.2z"/>
		<path class="st8" d="M813.1,338.2c1.5,0,3-0.3,4.3-0.8h-8.6C810.1,337.9,811.6,338.2,813.1,338.2z"/>
		<path class="st8" d="M808.8,315.5c-4.4,1.7-7.5,6-7.5,10.9c0,5,3.1,9.2,7.5,10.9h8.6c4.4-1.7,7.5-6,7.5-10.9
			c0-6.5-5.3-11.8-11.8-11.8c-0.2,0-0.3,0-0.5,0l0.5,0.8H808.8z"/>
		<path class="st8" d="M813.1,315.5l-0.5-0.8c-1.4,0.1-2.6,0.3-3.8,0.8H813.1z"/>
	</g>
</g>
<defs>
	<filter id="Adobe_OpacityMaskFilter_1_" filterUnits="userSpaceOnUse" x="-82.5" y="-61.9" width="743.4" height="450.7">
		
			<feColorMatrix  type="matrix" values="-1 0 0 0 1  0 -1 0 0 1  0 0 -1 0 1  0 0 0 1 0" color-interpolation-filters="sRGB" result="source"/>
		<feFlood  style="flood-color:white;flood-opacity:1" result="back"/>
		<feBlend  in="source" in2="back" mode="normal"/>
	</filter>
</defs>
<mask maskUnits="userSpaceOnUse" x="-82.5" y="-61.9" width="743.4" height="450.7" id="SVGID_8_">
	<g class="st9">
		<circle class="st5" cx="252.8" cy="226.8" r="15.6"/>
	</g>
</mask>
<g class="st10">
	<defs>
		<rect id="SVGID_9_" x="176.2" y="162.5" width="173.7" height="226.2"/>
	</defs>
	<clipPath id="SVGID_10_">
		<use xlink:href="#SVGID_9_"  style="overflow:visible;"/>
	</clipPath>
	<g class="st11">
		<path class="st0" d="M636.9,331.1c0-5,3.1-9.2,7.5-10.9h-37.6c4.4,1.7,7.5,6,7.5,10.9c0,5-3.1,9.2-7.5,10.9h37.6
			C639.9,340.3,636.9,336.1,636.9,331.1z"/>
		<path class="st8" d="M252.9,210.3c1.4,0,2.8,0.2,4.1,0.5l60.2-239.5c-2.9-0.7-5.6-2.2-7.7-4.3L-46.8,327.1c1.7,1.7,3,3.8,3.9,6.1
			l279.4-103.6c-0.1-0.9-0.2-1.7-0.2-2.6C236.3,217.8,243.7,210.3,252.9,210.3z"/>
		<path class="st8" d="M614.1,271.4l-281.6-304c-3,2.8-6.9,4.5-11.3,4.5c-1.4,0-2.8-0.2-4.1-0.5L257,210.8c6.8,1.7,12,7.7,12.5,14.9
			L609,281.1C609.6,277.3,611.4,273.9,614.1,271.4z"/>
		<path class="st8" d="M-46.8,327.1c-3-3-7.1-4.8-11.7-4.8c-9.2,0-16.7,7.5-16.7,16.7c0,6.2,3.4,11.7,8.5,14.5l8.2-14.1l8.2,14.1
			c5.1-2.9,8.5-8.3,8.5-14.5c0-2-0.4-4-1.1-5.8l-15.6,5.8L-46.8,327.1z"/>
		<path class="st8" d="M-46.8,327.1L-58.5,339l15.6-5.8C-43.8,330.9-45.1,328.8-46.8,327.1z"/>
		<path class="st8" d="M332.5-32.6c3.3-3,5.4-7.4,5.4-12.2c0-9.2-7.5-16.7-16.7-16.7s-16.7,7.5-16.7,16.7c0,4.6,1.9,8.8,4.9,11.8
			l11.7-11.8L332.5-32.6z"/>
		<path class="st8" d="M317.1-28.6c1.3,0.3,2.7,0.5,4.1,0.5c4.4,0,8.3-1.7,11.3-4.5l-11.3-12.2L317.1-28.6z"/>
		<path class="st8" d="M321.2-44.8l-11.7,11.8c2.1,2.1,4.7,3.6,7.7,4.3L321.2-44.8z"/>
		<path class="st8" d="M236.5,229.6c1.3,7.9,8.1,14,16.4,14c9.2,0,16.7-7.5,16.7-16.7c0-0.4,0-0.8-0.1-1.2l-15.6-2.6L236.5,229.6z"
			/>
		<path class="st8" d="M257,210.8c-1.3-0.3-2.7-0.5-4.1-0.5c-9.2,0-16.7,7.5-16.7,16.7c0,0.9,0.1,1.8,0.2,2.6l17.4-6.4L257,210.8z"
			/>
		<path class="st8" d="M257,210.8l-3.1,12.3l15.6,2.6C269,218.5,263.8,212.5,257,210.8z"/>
		<path class="st8" d="M625.5,280.2l9.7,16.9c4.2-3,6.9-7.9,6.9-13.5c0-9.2-7.5-16.7-16.7-16.7c-4.4,0-8.4,1.7-11.4,4.6l10.2,11
			L625.5,280.2z"/>
		<path class="st8" d="M609,281.1c-0.1,0.8-0.2,1.6-0.2,2.4c0,5.6,2.7,10.5,6.9,13.5l7.8-13.6L609,281.1z"/>
		<path class="st8" d="M624.2,282.4l-10.2-11c-2.7,2.5-4.5,5.9-5,9.7l14.6,2.4L624.2,282.4z"/>
		<path class="st8" d="M-66.7,353.5l-14.9,25.9h46.2l-14.9-25.9c-2.4,1.4-5.2,2.1-8.2,2.1S-64.3,354.8-66.7,353.5z"/>
		<path class="st8" d="M-66.7,353.5c2.4,1.4,5.2,2.1,8.2,2.1s5.8-0.8,8.2-2.1l-8.2-14.1L-66.7,353.5z"/>
		<path class="st8" d="M644.3,320.2c1.2-0.5,2.5-0.7,3.8-0.8L635.2,297c-2.7,2-6.1,3.2-9.7,3.2s-7-1.2-9.7-3.2l-12.9,22.4
			c1.4,0.1,2.6,0.3,3.8,0.8H644.3z"/>
		<path class="st8" d="M635.2,297l-9.7-16.9l-1.3,2.2l1.3,1.4l-1.9-0.3l-7.8,13.6c2.7,2,6.1,3.2,9.7,3.2S632.5,299,635.2,297z"/>
		<polygon class="st8" points="625.5,283.8 624.2,282.4 623.6,283.5 		"/>
		<path class="st8" d="M602.4,342.9c1.5,0,3-0.3,4.3-0.8h-8.6C599.4,342.6,600.9,342.9,602.4,342.9z"/>
		<path class="st8" d="M614.2,331.1c0-5-3.1-9.2-7.5-10.9h-4.3l0.5-0.8c-0.2,0-0.3,0-0.5,0c-6.5,0-11.8,5.3-11.8,11.8
			c0,5,3.1,9.2,7.5,10.9h8.6C611.1,340.3,614.2,336.1,614.2,331.1z"/>
		<path class="st8" d="M606.7,320.2c-1.2-0.5-2.5-0.7-3.8-0.8l-0.5,0.8H606.7z"/>
		<path class="st8" d="M648.6,342.9c1.5,0,3-0.3,4.3-0.8h-8.6C645.6,342.6,647.1,342.9,648.6,342.9z"/>
		<path class="st8" d="M644.3,320.2c-4.4,1.7-7.5,6-7.5,10.9c0,5,3.1,9.2,7.5,10.9h8.6c4.4-1.7,7.5-6,7.5-10.9
			c0-6.5-5.3-11.8-11.8-11.8c-0.2,0-0.3,0-0.5,0l0.5,0.8H644.3z"/>
		<path class="st8" d="M648.6,320.2l-0.5-0.8c-1.4,0.1-2.6,0.3-3.8,0.8H648.6z"/>
	</g>
</g>
<g>
	<g>
		<line class="st8" x1="656" y1="134.5" x2="576.5" y2="53.7"/>
		<g>
			<polygon class="st5" points="581.7,53.2 581.7,54.2 576.8,54 576.9,58.9 575.9,58.9 575.7,52.9 			"/>
		</g>
	</g>
</g>
<g>
	<g>
		<line class="st8" x1="652.7" y1="256.4" x2="541.4" y2="238.4"/>
		<g>
			<polygon class="st5" points="545.3,234.9 545.9,235.7 541.8,238.5 544.8,242.4 544,243 540.3,238.2 			"/>
		</g>
	</g>
</g>
<g>
	<g>
		<line class="st8" x1="790" y1="252.3" x2="788.2" y2="129.3"/>
		<g>
			<polygon class="st5" points="792.3,132.6 791.6,133.2 788.2,129.7 784.9,133.3 784.2,132.7 788.2,128.2 			"/>
		</g>
	</g>
</g>
<g>
	<g id="page1" transform="matrix(1.13 0 0 1.13 -63.986 -65.3486)">
		<g>
			<path id="g0-70" class="st5" d="M552.8,93.5h1.5c1.2,0,1.3,0.3,1.3,0.7c0,0.2,0,0.4-0.1,0.8c0,0.1,0,0.1,0,0.2
				c0,0.1,0.1,0.2,0.2,0.2c0.1,0,0.1-0.1,0.2-0.3l0.9-3.8c0-0.1,0-0.2-0.2-0.2c-0.1,0-0.2,0.1-0.2,0.3c-0.3,1.2-0.7,1.5-2.1,1.5
				h-1.5l1-4.2c0.1-0.6,0.2-0.6,0.8-0.6h2.2c2,0,2.3,0.6,2.3,1.7c0,0.1,0,0.5,0,0.9c0,0.1,0,0.3,0,0.3c0,0.1,0.1,0.2,0.2,0.2
				c0.1,0,0.2-0.1,0.2-0.4l0.3-2.8c0,0,0-0.2,0-0.2c0-0.2-0.1-0.2-0.4-0.2h-7.6c-0.3,0-0.5,0-0.5,0.3c0,0.2,0.1,0.2,0.4,0.2
				c1,0,1,0.1,1,0.3c0,0.1,0,0.1-0.1,0.3l-2.2,8.7c-0.1,0.6-0.2,0.7-1.3,0.7c-0.3,0-0.5,0-0.5,0.3c0,0.2,0.1,0.2,0.2,0.2
				c0.3,0,0.6,0,0.9,0h2.1c0.4,0,0.7,0,1.1,0c0.1,0,0.3,0,0.3-0.3c0-0.2-0.1-0.2-0.5-0.2c-1.3,0-1.3-0.1-1.3-0.4
				c0-0.1,0-0.2,0.1-0.3L552.8,93.5z"/>
		</g>
		<g>
			<path id="g1-50" class="st5" d="M561.2,98.9c0.2-0.2,0.6-0.5,0.8-0.7c0.7-0.6,1.3-1.2,1.3-2.2c0-1.3-1.1-2.1-2.4-2.1
				c-1.3,0-2.1,1-2.1,1.9c0,0.5,0.4,0.6,0.6,0.6c0.2,0,0.6-0.2,0.6-0.6c0-0.6-0.5-0.6-0.7-0.6c0.3-0.8,1-1.1,1.6-1.1
				c1,0,1.5,0.8,1.5,1.7c0,1.1-0.8,1.9-2,3.2l-1.4,1.4c-0.1,0.1-0.1,0.1-0.1,0.4h4.2l0.3-1.9H563c0,0.2-0.1,0.8-0.2,1
				c-0.1,0.1-0.9,0.1-1.1,0.1h-1.9L561.2,98.9z"/>
		</g>
	</g>
</g>
<g>
	<g id="page1_1_" transform="matrix(1.13 0 0 1.13 -63.986 -65.3486)">
		<g>
			<path id="g0-70_1_" class="st5" d="M510,264.2h1.5c1.2,0,1.3,0.3,1.3,0.7c0,0.2,0,0.4-0.1,0.8c0,0.1,0,0.1,0,0.2
				c0,0.1,0.1,0.2,0.2,0.2c0.1,0,0.1-0.1,0.2-0.3l0.9-3.8c0-0.1,0-0.2-0.2-0.2c-0.1,0-0.2,0.1-0.2,0.3c-0.3,1.2-0.7,1.5-2.1,1.5
				h-1.5l1-4.2c0.1-0.6,0.2-0.6,0.8-0.6h2.2c2,0,2.3,0.6,2.3,1.7c0,0.1,0,0.5,0,0.9c0,0.1,0,0.3,0,0.3c0,0.1,0.1,0.2,0.2,0.2
				c0.1,0,0.2-0.1,0.2-0.4l0.3-2.8c0,0,0-0.2,0-0.2c0-0.2-0.1-0.2-0.4-0.2h-7.6c-0.3,0-0.5,0-0.5,0.3c0,0.2,0.1,0.2,0.4,0.2
				c1,0,1,0.1,1,0.3c0,0.1,0,0.1-0.1,0.3l-2.2,8.7c-0.1,0.6-0.2,0.7-1.3,0.7c-0.3,0-0.5,0-0.5,0.3c0,0.2,0.1,0.2,0.2,0.2
				c0.3,0,0.6,0,0.9,0h2.1c0.4,0,0.7,0,1.1,0c0.1,0,0.3,0,0.3-0.3c0-0.2-0.1-0.2-0.5-0.2c-1.3,0-1.3-0.1-1.3-0.4
				c0-0.1,0-0.2,0.1-0.3L510,264.2z"/>
		</g>
		<g>
			<path id="g1-49" class="st5" d="M518.8,265c0-0.3,0-0.3-0.3-0.3c-0.4,0.4-1,0.7-2,0.7v0.4c0.3,0,0.9,0,1.5-0.3v5.5
				c0,0.4,0,0.5-1.1,0.5h-0.4v0.4c0.4,0,1.4,0,1.8,0c0.5,0,1.4,0,1.9,0v-0.4h-0.4c-1,0-1.1-0.1-1.1-0.5V265z"/>
		</g>
	</g>
</g>
<g>
	<g id="page1_2_" transform="matrix(1.13 0 0 1.13 -63.986 -65.3486)">
		<g>
			<path id="g0-82" class="st5" d="M754,144.8c0.1-0.6,0.2-0.6,0.8-0.6h1.2c1.4,0,2.4,0.4,2.4,1.7c0,0.8-0.4,3.2-3.7,3.2H753
				L754,144.8z M756.3,149.2c2-0.4,3.6-1.7,3.6-3.1c0-1.3-1.3-2.4-3.5-2.4h-4.4c-0.3,0-0.5,0-0.5,0.3c0,0.2,0.1,0.2,0.4,0.2
				c1,0,1,0.1,1,0.3c0,0,0,0.1-0.1,0.4l-2.2,8.7c-0.1,0.6-0.2,0.7-1.3,0.7c-0.4,0-0.5,0-0.5,0.3c0,0.2,0.2,0.2,0.2,0.2
				c0.3,0,0.6,0,0.9,0h1.9c0.3,0,0.6,0,0.9,0c0.1,0,0.3,0,0.3-0.3c0-0.2-0.1-0.2-0.4-0.2c-1,0-1-0.1-1-0.3c0,0,0-0.1,0-0.3l1.1-4.3
				h1.9c1.5,0,1.8,1,1.8,1.5c0,0.2-0.2,0.9-0.3,1.3c-0.2,0.7-0.2,0.9-0.2,1.2c0,1.1,0.9,1.7,2,1.7c1.3,0,1.9-1.6,1.9-1.8
				c0-0.1-0.1-0.2-0.2-0.2c-0.1,0-0.2,0.1-0.2,0.2c-0.4,1.1-1,1.4-1.4,1.4c-0.4,0-0.7-0.2-0.7-0.9c0-0.4,0.2-1.9,0.2-1.9
				c0.1-0.6,0.1-0.7,0.1-0.8C757.8,149.9,756.9,149.4,756.3,149.2z"/>
		</g>
	</g>
</g>
<g>
	<g>
		<line class="st8" x1="159.4" y1="258.2" x2="60.7" y2="296.3"/>
		<g>
			<polygon class="st5" points="62.4,291.3 63.3,291.7 61.1,296.1 65.7,298 65.3,298.9 59.7,296.7 			"/>
		</g>
	</g>
</g>
<g>
	<g>
		<line class="st8" x1="361.5" y1="240.7" x2="452.1" y2="254.3"/>
		<g>
			<polygon class="st5" points="448.2,257.8 447.7,257 451.7,254.2 448.6,250.4 449.4,249.7 453.2,254.4 			"/>
		</g>
	</g>
</g>
<g>
	<g>
		<line class="st8" x1="272.9" y1="147.4" x2="288.6" y2="85"/>
		<g>
			<polygon class="st5" points="291.7,89.2 290.9,89.7 288.5,85.3 284.4,88 283.8,87.2 288.8,83.9 			"/>
		</g>
	</g>
</g>
<g>
	<g>
		<line class="st8" x1="250.3" y1="252.4" x2="250.3" y2="338.6"/>
		<g>
			<polygon class="st5" points="246.2,335.3 247,334.6 250.3,338.2 253.7,334.6 254.4,335.3 250.3,339.7 			"/>
		</g>
	</g>
</g>
<g>
	<g id="page1_3_" transform="matrix(1.13 0 0 1.13 -63.986 -65.3486)">
		<g>
			<path id="g0-70_2_" class="st5" d="M465.6,286.9h1.5c1.2,0,1.3,0.3,1.3,0.7c0,0.2,0,0.4-0.1,0.8c0,0.1,0,0.1,0,0.2
				c0,0.1,0.1,0.2,0.2,0.2c0.1,0,0.1-0.1,0.2-0.3l0.9-3.8c0-0.1,0-0.2-0.2-0.2c-0.1,0-0.2,0.1-0.2,0.3c-0.3,1.2-0.7,1.5-2.1,1.5
				h-1.5l1-4.2c0.1-0.6,0.2-0.6,0.8-0.6h2.2c2,0,2.3,0.6,2.3,1.7c0,0.1,0,0.5,0,0.9c0,0.1,0,0.3,0,0.3c0,0.1,0.1,0.2,0.2,0.2
				c0.1,0,0.2-0.1,0.2-0.4l0.3-2.8c0,0,0-0.2,0-0.2c0-0.2-0.1-0.2-0.4-0.2h-7.6c-0.3,0-0.5,0-0.5,0.3c0,0.2,0.1,0.2,0.4,0.2
				c1,0,1,0.1,1,0.3c0,0.1,0,0.1-0.1,0.3l-2.2,8.7c-0.1,0.6-0.2,0.7-1.3,0.7c-0.3,0-0.5,0-0.5,0.3c0,0.2,0.1,0.2,0.2,0.2
				c0.3,0,0.6,0,0.9,0h2.1c0.4,0,0.7,0,1.1,0c0.1,0,0.3,0,0.3-0.3c0-0.2-0.1-0.2-0.5-0.2c-1.3,0-1.3-0.1-1.3-0.4
				c0-0.1,0-0.2,0.1-0.3L465.6,286.9z"/>
		</g>
		<g>
			<path id="g1-49_1_" class="st5" d="M474.3,287.7c0-0.3,0-0.3-0.3-0.3c-0.4,0.4-1,0.7-2,0.7v0.4c0.3,0,0.9,0,1.5-0.3v5.5
				c0,0.4,0,0.5-1.1,0.5h-0.4v0.4c0.4,0,1.4,0,1.8,0c0.5,0,1.4,0,1.9,0v-0.4h-0.4c-1,0-1.1-0.1-1.1-0.5V287.7z"/>
		</g>
	</g>
</g>
<g>
	<g id="page1_4_" transform="matrix(1.13 0 0 1.13 -63.986 -65.3486)">
		<g>
			<path id="g0-70_3_" class="st5" d="M88.7,326h1.5c1.2,0,1.3,0.3,1.3,0.7c0,0.2,0,0.4-0.1,0.8c0,0.1,0,0.1,0,0.2
				c0,0.1,0.1,0.2,0.2,0.2c0.1,0,0.1-0.1,0.2-0.3l0.9-3.8c0-0.1,0-0.2-0.2-0.2c-0.1,0-0.2,0.1-0.2,0.3c-0.3,1.2-0.7,1.5-2.1,1.5
				h-1.5l1-4.2c0.1-0.6,0.2-0.6,0.8-0.6h2.2c2,0,2.3,0.6,2.3,1.7c0,0.1,0,0.5,0,0.9c0,0.1,0,0.3,0,0.3c0,0.1,0.1,0.2,0.2,0.2
				c0.1,0,0.2-0.1,0.2-0.4l0.3-2.8c0,0,0-0.2,0-0.2c0-0.2-0.1-0.2-0.4-0.2h-7.6c-0.3,0-0.5,0-0.5,0.3c0,0.2,0.1,0.2,0.4,0.2
				c1,0,1,0.1,1,0.3c0,0.1,0,0.1-0.1,0.3l-2.2,8.7c-0.1,0.6-0.2,0.7-1.3,0.7c-0.3,0-0.5,0-0.5,0.3c0,0.2,0.1,0.2,0.2,0.2
				c0.3,0,0.6,0,0.9,0h2.1c0.4,0,0.7,0,1.1,0c0.1,0,0.3,0,0.3-0.3c0-0.2-0.1-0.2-0.5-0.2c-1.3,0-1.3-0.1-1.3-0.4
				c0-0.1,0-0.2,0.1-0.3L88.7,326z"/>
		</g>
		<g>
			<path id="g1-51" class="st5" d="M96.8,330.1c0.8,0,1.4,0.6,1.4,1.7c0,1.3-0.8,1.7-1.3,1.7c-0.6,0-1.4-0.2-1.8-0.8
				c0.4,0,0.7-0.2,0.7-0.6c0-0.3-0.2-0.6-0.6-0.6c-0.3,0-0.6,0.2-0.6,0.6c0,1,1.1,1.7,2.3,1.7c1.4,0,2.4-1,2.4-2.1
				c0-0.9-0.7-1.7-1.8-1.9c0.8-0.3,1.5-1,1.5-1.9c0-0.9-1-1.5-2.1-1.5c-1.1,0-2,0.6-2,1.4c0,0.4,0.3,0.6,0.5,0.6
				c0.3,0,0.5-0.2,0.5-0.5c0-0.4-0.3-0.5-0.6-0.6c0.5-0.6,1.3-0.6,1.5-0.6c0.3,0,1.1,0.1,1.1,1.2c0,0.8-0.3,1.2-0.5,1.4
				c-0.3,0.3-0.6,0.4-1.2,0.4c-0.2,0-0.3,0-0.3,0.2c0,0.2,0.1,0.2,0.3,0.2H96.8z"/>
		</g>
	</g>
</g>
<g>
	<g id="page1_5_" transform="matrix(1.13 0 0 1.13 -63.986 -65.3486)">
		<g>
			<path id="g0-70_4_" class="st5" d="M312.4,117.2h1.5c1.2,0,1.3,0.3,1.3,0.7c0,0.2,0,0.4-0.1,0.8c0,0.1,0,0.1,0,0.2
				c0,0.1,0.1,0.2,0.2,0.2c0.1,0,0.1-0.1,0.2-0.3l0.9-3.8c0-0.1,0-0.2-0.2-0.2c-0.1,0-0.2,0.1-0.2,0.3c-0.3,1.2-0.7,1.5-2.1,1.5
				h-1.5l1-4.2c0.1-0.6,0.2-0.6,0.8-0.6h2.2c2,0,2.3,0.6,2.3,1.7c0,0.1,0,0.5,0,0.9c0,0.1,0,0.3,0,0.3c0,0.1,0.1,0.2,0.2,0.2
				c0.1,0,0.2-0.1,0.2-0.4l0.3-2.8c0,0,0-0.2,0-0.2c0-0.2-0.1-0.2-0.4-0.2h-7.6c-0.3,0-0.5,0-0.5,0.3c0,0.2,0.1,0.2,0.4,0.2
				c1,0,1,0.1,1,0.3c0,0.1,0,0.1-0.1,0.3l-2.2,8.7c-0.1,0.6-0.2,0.7-1.3,0.7c-0.3,0-0.5,0-0.5,0.3c0,0.2,0.1,0.2,0.2,0.2
				c0.3,0,0.6,0,0.9,0h2.1c0.4,0,0.7,0,1.1,0c0.1,0,0.3,0,0.3-0.3c0-0.2-0.1-0.2-0.5-0.2c-1.3,0-1.3-0.1-1.3-0.4
				c0-0.1,0-0.2,0.1-0.3L312.4,117.2z"/>
		</g>
		<g>
			<path id="g1-52" class="st5" d="M322,118c0-0.2,0-0.3-0.2-0.3c-0.1,0-0.2,0-0.3,0.2l-3.4,5v0.4h3v0.9c0,0.4,0,0.5-0.9,0.5H320
				v0.4c0.9,0,0.9,0,1.5,0c0.6,0,0.6,0,1.5,0v-0.4h-0.2c-0.8,0-0.9-0.1-0.9-0.5v-0.9h1.1v-0.4H322V118z M321.2,118.8v4h-2.7
				L321.2,118.8z"/>
		</g>
	</g>
</g>
<g>
	<g id="page1_6_" transform="matrix(1.13 0 0 1.13 -63.986 -65.1985)">
		<g>
			<path id="g1-53" class="st5" d="M265.5,369.6c0.7,0.2,1.3,0.2,1.4,0.2c1.8,0,3-1.3,3-1.6c0-0.1,0-0.1-0.1-0.1c0,0-0.1,0-0.2,0.1
				c-0.9,0.4-1.7,0.4-2.1,0.4c-1.1,0-1.8-0.3-2.1-0.5c-0.1,0-0.1,0-0.2,0c-0.1,0-0.1,0.1-0.1,0.4v4.8c0,0.3,0,0.4,0.2,0.4
				c0.1,0,0.1,0,0.3-0.2c0.5-0.7,1.2-1,2-1c0.9,0,1.3,0.8,1.4,1.1c0.3,0.6,0.3,1.4,0.3,2c0,0.6,0,1.5-0.5,2.3c-0.4,0.6-1,1-1.7,1
				c-1.1,0-2.1-0.7-2.4-1.9c0.1,0,0.2,0,0.3,0c0.3,0,0.7-0.2,0.7-0.7c0-0.5-0.3-0.7-0.7-0.7c-0.3,0-0.7,0.1-0.7,0.8
				c0,1.4,1.1,2.9,2.9,2.9c1.8,0,3.4-1.5,3.4-3.6c0-1.9-1.3-3.5-3-3.5c-0.9,0-1.6,0.4-2,0.9V369.6z"/>
		</g>
		<g>
			<path id="g1-48" class="st5" d="M278.5,373.7c0-1.3-0.1-2.6-0.7-3.9c-0.7-1.3-1.8-1.7-2.6-1.7c-0.9,0-2.1,0.5-2.7,1.8
				c-0.5,1-0.6,2-0.6,3.8c0,1.6,0.1,2.7,0.7,3.9c0.6,1.2,1.7,1.6,2.6,1.6c1.4,0,2.2-0.8,2.7-1.8
				C278.4,376.2,278.5,374.6,278.5,373.7z M275.2,378.8c-0.5,0-1.6-0.3-1.9-2c-0.2-1-0.2-2.2-0.2-3.3c0-1.3,0-2.5,0.3-3.5
				c0.3-1.1,1.1-1.6,1.8-1.6c0.6,0,1.5,0.4,1.9,1.8c0.2,0.9,0.2,2.2,0.2,3.3c0,1.1,0,2.3-0.2,3.3
				C276.8,378.5,275.8,378.8,275.2,378.8z"/>
		</g>
		<g>
			<path id="g0-107" class="st5" d="M283.6,368.1c0-0.1,0-0.2,0-0.2c0-0.2-0.2-0.2-0.2-0.2c0,0-0.6,0-0.9,0.1c-0.3,0-0.5,0-0.8,0.1
				c-0.4,0-0.5,0-0.5,0.3c0,0.2,0.2,0.2,0.3,0.2c0.8,0,0.8,0.1,0.8,0.3c0,0.1,0,0.1-0.1,0.4l-2.3,9.2c-0.1,0.2-0.1,0.3-0.1,0.4
				c0,0.4,0.3,0.4,0.4,0.4c0.5,0,0.5-0.4,0.7-0.9l0.8-3c1.2,0.1,1.9,0.6,1.9,1.4c0,0.1,0,0.2,0,0.4c-0.1,0.2-0.1,0.4-0.1,0.5
				c0,0.9,0.6,1.6,1.4,1.6c0.7,0,1.1-0.7,1.3-0.9c0.3-0.6,0.5-1.5,0.5-1.6c0-0.1-0.1-0.1-0.2-0.1c-0.1,0-0.2,0.1-0.2,0.3
				c-0.2,0.8-0.6,2-1.4,2c-0.3,0-0.5-0.2-0.5-0.8c0-0.3,0.1-0.7,0.1-0.9c0.1-0.3,0.1-0.3,0.1-0.5c0-0.9-0.9-1.5-2.3-1.7
				c0.6-0.4,1.2-1,1.4-1.2c0.9-1,1.5-1.5,2.3-1.5c0.4,0,0.5,0.1,0.6,0.2c-0.6,0.1-0.8,0.5-0.8,0.8c0,0.4,0.3,0.5,0.5,0.5
				c0.4,0,0.8-0.4,0.8-0.9c0-0.5-0.4-0.9-1.1-0.9c-0.9,0-1.6,0.6-2.8,1.9c-0.2,0.2-0.8,0.8-1.4,1L283.6,368.1z"/>
		</g>
		<g>
			<path id="g0-78" class="st5" d="M299.7,369.5c0.2-0.7,0.4-1.2,1.7-1.2c0,0,0.2,0,0.2-0.3c0-0.2-0.1-0.2-0.2-0.2
				c-0.3,0-1.1,0-1.5,0h-0.8c-0.2,0-0.5,0-0.7,0c-0.1,0-0.3,0-0.3,0.3c0,0.2,0.1,0.2,0.2,0.2c1,0,1,0.4,1,0.7c0,0.1,0,0.2-0.1,0.4
				l-1.8,7.3l-3.4-8.6c-0.1-0.3-0.1-0.3-0.5-0.3h-2c-0.3,0-0.5,0-0.5,0.3c0,0.2,0.1,0.2,0.4,0.2c0.1,0,1,0,1,0.1c0,0,0,0.2,0,0.2
				l-2.1,8.5c-0.2,0.8-0.6,1.1-1.6,1.2c-0.1,0-0.2,0-0.2,0.3c0,0.2,0.2,0.2,0.2,0.2c0.3,0,1.1,0,1.5,0h0.8c0.2,0,0.5,0,0.7,0
				c0.1,0,0.3,0,0.3-0.3c0-0.1-0.2-0.2-0.2-0.2c-0.5,0-1-0.1-1-0.7c0-0.1,0-0.3,0.1-0.4l2.2-8.6c0.1,0.2,0.1,0.2,0.2,0.3l3.8,9.5
				c0.1,0.2,0.1,0.3,0.3,0.3c0.2,0,0.2,0,0.2-0.3L299.7,369.5z"/>
		</g>
	</g>
</g>
</svg>
